<svg xmlns="http://www.w3.org/2000/svg" xmlns:xlink="http://www.w3.org/1999/xlink" width="79" height="69" viewBox="0 0 79 69">
  <metadata><?xpacket begin="﻿" id="W5M0MpCehiHzreSzNTczkc9d"?>
<x:xmpmeta xmlns:x="adobe:ns:meta/" x:xmptk="Adobe XMP Core 5.6-c138 79.159824, 2016/09/14-01:09:01        ">
   <rdf:RDF xmlns:rdf="http://www.w3.org/1999/02/22-rdf-syntax-ns#">
      <rdf:Description rdf:about=""/>
   </rdf:RDF>
</x:xmpmeta>
                                                                                                    
                                                                                                    
                                                                                                    
                                                                                                    
                                                                                                    
                                                                                                    
                                                                                                    
                                                                                                    
                                                                                                    
                                                                                                    
                                                                                                    
                                                                                                    
                                                                                                    
                                                                                                    
                                                                                                    
                                                                                                    
                                                                                                    
                                                                                                    
                                                                                                    
                                                                                                    
                           
<?xpacket end="w"?></metadata>
<defs>
    <style>
      .cls-1 {
        fill: #ffc947;
        fill-rule: evenodd;
        filter: url(#filter);
      }
    </style>
    <filter id="filter" x="1009" y="2872" width="79" height="75" filterUnits="userSpaceOnUse">
      <feOffset result="offset" dy="10" in="SourceAlpha"/>
      <feGaussianBlur result="blur" stdDeviation="5.657"/>
      <feFlood result="flood" flood-color="#ffc947" flood-opacity="0.51"/>
      <feComposite result="composite" operator="in" in2="blur"/>
      <feBlend result="blend" in="SourceGraphic"/>
    </filter>
  </defs>
  <path id="Forma_1" data-name="Forma 1" class="cls-1" d="M1056,2903a1.941,1.941,0,0,1-.26.96l-5.05-5.65,5-4.37a2.023,2.023,0,0,1,.31,1.06v8Zm-8-3.66,6.95-6.09a2,2,0,0,0-.95-0.25h-12a2,2,0,0,0-.95.25Zm1.94-.37-1.61,1.41a0.514,0.514,0,0,1-.66,0l-1.61-1.41-5.11,5.72a1.962,1.962,0,0,0,1.05.31h12a1.962,1.962,0,0,0,1.05-.31Zm-9.63-5.03a2.023,2.023,0,0,0-.31,1.06v8a1.941,1.941,0,0,0,.26.96l5.05-5.65Z" transform="translate(-1009 -2872)"/>
</svg>
