<?xml version="1.0" encoding="UTF-8" standalone="no"?>
<!DOCTYPE svg PUBLIC "-//W3C//DTD SVG 1.1//EN" "http://www.w3.org/Graphics/SVG/1.1/DTD/svg11.dtd">
<svg version="1.1" id="Layer_1" xmlns="http://www.w3.org/2000/svg" xmlns:xlink="http://www.w3.org/1999/xlink" x="0px" y="0px" width="13px" height="12px" viewBox="0 0 13 12" enable-background="new 0 0 13 12" xml:space="preserve">  <image id="image0" width="13" height="12" x="0" y="0"
    xlink:href="data:image/png;base64,iVBORw0KGgoAAAANSUhEUgAAAA0AAAAMCAMAAACOacfrAAAABGdBTUEAALGPC/xhBQAAACBjSFJN
AAB6JgAAgIQAAPoAAACA6AAAdTAAAOpgAAA6mAAAF3CculE8AAAAllBMVEWwtcKwtcKwtcKwtcKw
tcKwtcKwtcKwtcKwtcKwtcKwtcKwtcKwtcKwtcKwtcKwtcKwtcKwtcKwtcKwtcKwtcKwtcKwtcKw
tcKwtcKwtcKwtcKwtcKwtcKwtcKwtcKwtcKwtcKwtcKwtcKwtcKwtcKwtcKwtcKwtcKwtcKwtcKw
tcKwtcKwtcKwtcKwtcKwtcKwtcL///9tgiD/AAAAMHRSTlMAAlOx5/kVwAjQeHrY/LDBusLr7Irx
8Ifv8onooaYl9f4pTfYUK7b9VBdHVkYScbu8AmKvAAAAAWJLR0Qx2dsdcgAAAAd0SU1FB+EMCwwe
GM0KVmoAAABySURBVAjXTY7ZDoJAEAQLWDmURRTvC+8b6f//OtcY0Mo8THUymQY8PzAdE/gejjDS
lyiEOFFDEtPVjx6pZJpJscro5+QDMlmGKkbjyXQ2XxRasvq7W7MpW9nuYH9o9ejen84Xt1kXXj9t
uN0fz6p61fUbnOsTI89aOTkAAAAldEVYdGRhdGU6Y3JlYXRlADIwMTctMTItMTFUMTI6MzA6MjQr
MDM6MDDn07hWAAAAJXRFWHRkYXRlOm1vZGlmeQAyMDE3LTEyLTExVDEyOjMwOjI0KzAzOjAwlo4A
6gAAABl0RVh0U29mdHdhcmUAQWRvYmUgSW1hZ2VSZWFkeXHJZTwAAAAASUVORK5CYII=" />
</svg>
